# BEGIN PLOT
XTwosidedTicks=1
YTwosidedTicks=1
Title=$Z\rightarrow ee$, dressed level, $66\,\text{GeV}\leq m_{\ell\ell} < 116\,\text{GeV}$, $0.8 \leq |y_{\ell\ell}| < 1.2$
RatioPlotReference=/ATLAS_2015_I1408516/d19-x01-y01
RatioPlot=1
LogX=1
LogY=1
LegendXPos=0.05
XLabel=$p_\text{T}^{\ell\ell}$ [GeV]
YLabel=$1/\sigma$ $\text{d}\sigma/\text{d} p_\text{T}^{\ell\ell}$
XMin=0.9
DrawOnly=/ATLAS_2015_I1408516/d19-x01-y01 //Users/josegabrielreyes/Documents/rivet_tutorial_msu_2019/Rivet.yoda/ATLAS_2015_I1408516/d19-x01-y01
LegendYPos=0.3
Legend=1
LegendOnly=/ATLAS_2015_I1408516/d19-x01-y01 //Users/josegabrielreyes/Documents/rivet_tutorial_msu_2019/Rivet.yoda/ATLAS_2015_I1408516/d19-x01-y01
# END PLOT

# BEGIN HISTO1D /ATLAS_2015_I1408516/d19-x01-y01
ConnectBins=0
ErrorBars=1
ErrorBreakdown={0: {stat: {dn: -0.0001584, up: 0.0001584}, "sys,Correlated": {dn: -0.000264, up: 0.000264}, "sys,Uncorrelated": {dn: -7.92e-05, up: 7.92e-05}}, 1: {stat: {dn: -0.00022128000000000002, up: 0.00022128000000000002}, "sys,Correlated": {dn: -0.00033192, up: 0.00033192}, "sys,Uncorrelated": {dn: -0.00011064000000000001, up: 0.00011064000000000001}}, 2: {stat: {dn: -0.00022392000000000004, up: 0.00022392000000000004}, "sys,Correlated": {dn: -0.00016794000000000002, up: 0.00016794000000000002}, "sys,Uncorrelated": {dn: -0.00011196000000000002, up: 0.00011196000000000002}}, 3: {stat: {dn: -0.00019556, up: 0.00019556}, "sys,Correlated": {dn: -0.00019556, up: 0.00019556}, "sys,Uncorrelated": {dn: -9.778e-05, up: 9.778e-05}}, 4: {stat: {dn: -0.0002063, up: 0.0002063}, "sys,Correlated": {dn: -0.0002063, up: 0.0002063}, "sys,Uncorrelated": {dn: -0.00012377999999999998, up: 0.00012377999999999998}}, 5: {stat: {dn: -0.00013152, up: 0.00013152}, "sys,Correlated": {dn: -0.00013152, up: 0.00013152}, "sys,Uncorrelated": {dn: -6.576e-05, up: 6.576e-05}}, 6: {stat: {dn: -0.0001276, up: 0.0001276}, "sys,Correlated": {dn: -0.00010208000000000001, up: 0.00010208000000000001}, "sys,Uncorrelated": {dn: -5.1040000000000006e-05, up: 5.1040000000000006e-05}}, 7: {stat: {dn: -7.668e-05, up: 7.668e-05}, "sys,Correlated": {dn: -5.7509999999999997e-05, up: 5.7509999999999997e-05}, "sys,Uncorrelated": {dn: -3.834e-05, up: 3.834e-05}}, 8: {stat: {dn: -5.44e-05, up: 5.44e-05}, "sys,Correlated": {dn: -4.0799999999999996e-05, up: 4.0799999999999996e-05}, "sys,Uncorrelated": {dn: -2.72e-05, up: 2.72e-05}}, 9: {stat: {dn: -4.913e-05, up: 4.913e-05}, "sys,Correlated": {dn: -2.9477999999999998e-05, up: 2.9477999999999998e-05}, "sys,Uncorrelated": {dn: -1.9652e-05, up: 1.9652e-05}}, 10: {stat: {dn: -3.4205e-05, up: 3.4205e-05}, "sys,Correlated": {dn: -2.7364000000000004e-05, up: 2.7364000000000004e-05}, "sys,Uncorrelated": {dn: -1.3682000000000002e-05, up: 1.3682000000000002e-05}}, 11: {stat: {dn: -2.2794999999999998e-05, up: 2.2794999999999998e-05}, "sys,Correlated": {dn: -2.7353999999999996e-05, up: 2.7353999999999996e-05}, "sys,Uncorrelated": {dn: -9.118e-06, up: 9.118e-06}}, 12: {stat: {dn: -1.7772e-05, up: 1.7772e-05}, "sys,Correlated": {dn: -2.3695999999999998e-05, up: 2.3695999999999998e-05}, "sys,Uncorrelated": {dn: -8.886e-06, up: 8.886e-06}}, 13: {stat: {dn: -1.3320999999999998e-05, up: 1.3320999999999998e-05}, "sys,Correlated": {dn: -1.903e-05, up: 1.903e-05}, "sys,Uncorrelated": {dn: -5.709e-06, up: 5.709e-06}}, 14: {stat: {dn: -1.1142000000000001e-05, up: 1.1142000000000001e-05}, "sys,Correlated": {dn: -1.4856e-05, up: 1.4856e-05}, "sys,Uncorrelated": {dn: -4.952e-06, up: 4.952e-06}}, 15: {stat: {dn: -8.9826e-06, up: 8.9826e-06}, "sys,Correlated": {dn: -9.7992e-06, up: 9.7992e-06}, "sys,Uncorrelated": {dn: -4.8996e-06, up: 4.8996e-06}}, 16: {stat: {dn: -4.7980000000000005e-06, up: 4.7980000000000005e-06}, "sys,Correlated": {dn: -4.7980000000000005e-06, up: 4.7980000000000005e-06}, "sys,Uncorrelated": {dn: -1.9192e-06, up: 1.9192e-06}}, 17: {stat: {dn: -1.807e-06, up: 1.807e-06}, "sys,Correlated": {dn: -1.6263e-06, up: 1.6263e-06}, "sys,Uncorrelated": {dn: -7.228000000000001e-07, up: 7.228000000000001e-07}}, 18: {stat: {dn: -8.731200000000001e-07, up: 8.731200000000001e-07}, "sys,Correlated": {dn: -7.190400000000001e-07, up: 7.190400000000001e-07}, "sys,Uncorrelated": {dn: -3.5952000000000003e-07, up: 3.5952000000000003e-07}}, 19: {stat: {dn: -4.468200000000001e-08, up: 4.468200000000001e-08}, "sys,Correlated": {dn: -3.2496e-08, up: 3.2496e-08}, "sys,Uncorrelated": {dn: -1.4217e-08, up: 1.4217e-08}}}
IsRef=1
Path=/ATLAS_2015_I1408516/d19-x01-y01
PolyMarker=*
Title=Data
# xlow	 xhigh	 val	 errminus	 errplus
0.000000e+00	2.000000e+00	2.640000e-02	3.178981e-04	3.178981e-04
2.000000e+00	4.000000e+00	5.532000e-02	4.139770e-04	4.139770e-04
4.000000e+00	6.000000e+00	5.598000e-02	3.014615e-04	3.014615e-04
6.000000e+00	8.000000e+00	4.889000e-02	2.933400e-04	2.933400e-04
8.000000e+00	1.000000e+01	4.126000e-02	3.169241e-04	3.169241e-04
1.000000e+01	1.300000e+01	3.288000e-02	1.972800e-04	1.972800e-04
1.300000e+01	1.600000e+01	2.552000e-02	1.711934e-04	1.711934e-04
1.600000e+01	2.000000e+01	1.917000e-02	1.032336e-04	1.032336e-04
2.000000e+01	2.500000e+01	1.360000e-02	7.323824e-05	7.323824e-05
2.500000e+01	3.000000e+01	9.826000e-03	6.057153e-05	6.057153e-05
3.000000e+01	3.700000e+01	6.841000e-03	4.589082e-05	4.589082e-05
3.700000e+01	4.500000e+01	4.559000e-03	3.675583e-05	3.675583e-05
4.500000e+01	5.500000e+01	2.962000e-03	3.092419e-05	3.092419e-05
5.500000e+01	6.500000e+01	1.903000e-03	2.392034e-05	2.392034e-05
6.500000e+01	7.500000e+01	1.238000e-03	1.921893e-05	1.921893e-05
7.500000e+01	8.500000e+01	8.166000e-04	1.416748e-05	1.416748e-05
8.500000e+01	1.050000e+02	4.798000e-04	7.051591e-06	7.051591e-06
1.050000e+02	1.500000e+02	1.807000e-04	2.536245e-06	2.536245e-06
1.500000e+02	2.000000e+02	5.136000e-05	1.186849e-06	1.186849e-06
2.000000e+02	9.000000e+02	2.031000e-06	5.704905e-08	5.704905e-08
# END HISTO1D


# BEGIN HISTO1D //Users/josegabrielreyes/Documents/rivet_tutorial_msu_2019/Rivet.yoda/ATLAS_2015_I1408516/d19-x01-y01
ErrorBars=1
LineColor=red
LineStyle=solid
Path=//Users/josegabrielreyes/Documents/rivet_tutorial_msu_2019/Rivet.yoda/ATLAS_2015_I1408516/d19-x01-y01
ScaledBy=1.20980440003437741e-02
Title=MC Simulation
XLabel=~
YLabel=~
# xlow	 xhigh	 val	 errminus	 errplus
0.000000e+00	2.000000e+00	2.266402e-01	1.061340e-02	1.061340e-02
2.000000e+00	4.000000e+00	2.375745e-01	1.086641e-02	1.086641e-02
4.000000e+00	6.000000e+00	3.429423e-02	4.128541e-03	4.128541e-03
6.000000e+00	8.000000e+00	1.491053e-03	8.608602e-04	8.608602e-04
8.000000e+00	1.000000e+01	0.000000e+00	0.000000e+00	0.000000e+00
1.000000e+01	1.300000e+01	0.000000e+00	0.000000e+00	0.000000e+00
1.300000e+01	1.600000e+01	0.000000e+00	0.000000e+00	0.000000e+00
1.600000e+01	2.000000e+01	0.000000e+00	0.000000e+00	0.000000e+00
2.000000e+01	2.500000e+01	0.000000e+00	0.000000e+00	0.000000e+00
2.500000e+01	3.000000e+01	0.000000e+00	0.000000e+00	0.000000e+00
3.000000e+01	3.700000e+01	0.000000e+00	0.000000e+00	0.000000e+00
3.700000e+01	4.500000e+01	0.000000e+00	0.000000e+00	0.000000e+00
4.500000e+01	5.500000e+01	0.000000e+00	0.000000e+00	0.000000e+00
5.500000e+01	6.500000e+01	0.000000e+00	0.000000e+00	0.000000e+00
6.500000e+01	7.500000e+01	0.000000e+00	0.000000e+00	0.000000e+00
7.500000e+01	8.500000e+01	0.000000e+00	0.000000e+00	0.000000e+00
8.500000e+01	1.050000e+02	0.000000e+00	0.000000e+00	0.000000e+00
1.050000e+02	1.500000e+02	0.000000e+00	0.000000e+00	0.000000e+00
1.500000e+02	2.000000e+02	0.000000e+00	0.000000e+00	0.000000e+00
2.000000e+02	9.000000e+02	0.000000e+00	0.000000e+00	0.000000e+00
# END HISTO1D

