# BEGIN PLOT
XTwosidedTicks=1
YTwosidedTicks=1
Title=$Z\rightarrow ee$, dressed level, $30\,\text{GeV}\leq m_{\ell\ell} < 46\,\text{GeV}$, $|y_{\ell\ell}| < 2.4$
RatioPlotReference=/ATLAS_2015_I1408516/d25-x01-y01
RatioPlot=1
LogX=1
LogY=1
LegendXPos=0.05
XLabel=$p_\text{T}^{\ell\ell}$ [GeV]
YLabel=$1/\sigma$ $\text{d}\sigma/\text{d} p_\text{T}^{\ell\ell}$
DrawOnly=/ATLAS_2015_I1408516/d25-x01-y01 //Users/josegabrielreyes/Documents/rivet_tutorial_msu_2019/Rivet.yoda/ATLAS_2015_I1408516/d25-x01-y01
LegendYPos=0.3
Legend=1
LegendOnly=/ATLAS_2015_I1408516/d25-x01-y01 //Users/josegabrielreyes/Documents/rivet_tutorial_msu_2019/Rivet.yoda/ATLAS_2015_I1408516/d25-x01-y01
# END PLOT

# BEGIN HISTO1D /ATLAS_2015_I1408516/d25-x01-y01
ConnectBins=0
ErrorBars=1
ErrorBreakdown={0: {stat: {dn: -0.00062766, up: 0.00062766}, "sys,Correlated": {dn: -0.00048500999999999997, up: 0.00048500999999999997}, "sys,Uncorrelated": {dn: -0.00017118, up: 0.00017118}}, 1: {stat: {dn: -0.0005597800000000001, up: 0.0005597800000000001}, "sys,Correlated": {dn: -0.00030142, up: 0.00030142}, "sys,Uncorrelated": {dn: -0.00030142, up: 0.00030142}}, 2: {stat: {dn: -0.00050061, up: 0.00050061}, "sys,Correlated": {dn: -0.00024272, up: 0.00024272}, "sys,Uncorrelated": {dn: -0.00016687, up: 0.00016687}}, 3: {stat: {dn: -0.0003959760000000001, up: 0.0003959760000000001}, "sys,Correlated": {dn: -0.000216844, up: 0.000216844}, "sys,Uncorrelated": {dn: -0.00014142, up: 0.00014142}}, 4: {stat: {dn: -0.00019696200000000002, up: 0.00019696200000000002}, "sys,Correlated": {dn: -0.000144825, up: 0.000144825}, "sys,Uncorrelated": {dn: -8.1102e-05, up: 8.1102e-05}}, 5: {stat: {dn: -6.9762e-05, up: 6.9762e-05}, "sys,Correlated": {dn: -6.342e-05, up: 6.342e-05}, "sys,Uncorrelated": {dn: -3.171e-05, up: 3.171e-05}}, 6: {stat: {dn: -3.05984e-05, up: 3.05984e-05}, "sys,Correlated": {dn: -1.9670400000000004e-05, up: 1.9670400000000004e-05}, "sys,Uncorrelated": {dn: -9.2888e-06, up: 9.2888e-06}}, 7: {stat: {dn: -1.65935e-06, up: 1.65935e-06}, "sys,Correlated": {dn: -1.293e-06, up: 1.293e-06}, "sys,Uncorrelated": {dn: -1.0990499999999999e-06, up: 1.0990499999999999e-06}}}
IsRef=1
Path=/ATLAS_2015_I1408516/d25-x01-y01
PolyMarker=*
Title=Data
# xlow	 xhigh	 val	 errminus	 errplus
4.500000e+01	5.500000e+01	2.853000e-02	8.114767e-04	8.114767e-04
5.500000e+01	6.500000e+01	2.153000e-02	7.036062e-04	7.036062e-04
6.500000e+01	7.500000e+01	1.517000e-02	5.808347e-04	5.808347e-04
7.500000e+01	8.500000e+01	9.428000e-03	4.730940e-04	4.730940e-04
8.500000e+01	1.050000e+02	5.793000e-03	2.575769e-04	2.575769e-04
1.050000e+02	1.500000e+02	2.114000e-03	9.947038e-05	9.947038e-05
1.500000e+02	2.000000e+02	5.464000e-04	3.754289e-05	3.754289e-05
2.000000e+02	9.000000e+02	2.155000e-05	2.373437e-06	2.373437e-06
# END HISTO1D


# BEGIN HISTO1D //Users/josegabrielreyes/Documents/rivet_tutorial_msu_2019/Rivet.yoda/ATLAS_2015_I1408516/d25-x01-y01
ErrorBars=1
LineColor=red
LineStyle=solid
Path=//Users/josegabrielreyes/Documents/rivet_tutorial_msu_2019/Rivet.yoda/ATLAS_2015_I1408516/d25-x01-y01
ScaledBy=1.00000000000049161e+00
Title=MC Simulation
XLabel=~
YLabel=~
# xlow	 xhigh	 val	 errminus	 errplus
4.500000e+01	5.500000e+01	0.000000e+00	0.000000e+00	0.000000e+00
5.500000e+01	6.500000e+01	0.000000e+00	0.000000e+00	0.000000e+00
6.500000e+01	7.500000e+01	0.000000e+00	0.000000e+00	0.000000e+00
7.500000e+01	8.500000e+01	0.000000e+00	0.000000e+00	0.000000e+00
8.500000e+01	1.050000e+02	0.000000e+00	0.000000e+00	0.000000e+00
1.050000e+02	1.500000e+02	0.000000e+00	0.000000e+00	0.000000e+00
1.500000e+02	2.000000e+02	0.000000e+00	0.000000e+00	0.000000e+00
2.000000e+02	9.000000e+02	0.000000e+00	0.000000e+00	0.000000e+00
# END HISTO1D

